Chapter 8 Automated Pollution Monitoring | Econ5/Poli5D
…
The haven package comes with a function read_dta, which will read in a .dta file as a tibble.

pm <- read_dta("station_day_1116.dta")

To first get a sense of our data, let’s look at a few of the key variables in this dataset.

pm %>% select(pm10_n,code_city,date,pm10,auto_date)
#> # A tibble: 1,433,568 × 5
#>    pm10_n code_city  date  pm10 auto_date
#>     <dbl>     <dbl> <dbl> <dbl>     <dbl>
#>  1     46    440300 18628  NA       19060
#>  2     46    440300 18629  NA       19060
#>  3     46    440300 18630  NA       19060
#>  4     46    440300 18631  NA       19060
#>  5     46    440300 18632  NA       19060
#>  6     46    440300 18633  NA       19060
#>  7     46    440300 18634  70.1     19060
#>  8     46    440300 18635 114.      19060
#>  9     46    440300 18636  62.5     19060
#> 10     46    440300 18637  90.8     19060
#> # ℹ 1,433,558 more rows
…
