Chapter 7 The Rug Rat Race | Econ5/Poli5D
…
The first concept we will learn from tidyverse is the concept of a tibble. A tibble is very similar to what we have been calling a data frame. For our purposes, you can think of a tibble as synonymous with data frame. The main difference is in how the data is stored and presented. For us, this won’t matter too much. For larger datasets, sometimes loading as a tibble can make a big difference in terms of how long computations take.

To start, let’s load rugratrace.csv as a data frame.

rr <- read.csv("rugratrace.csv")

To convert a data frame to a tibble, you can use the function as_tibble().

rr <- as_tibble(rr)

If you are following along, you may think the code above did not actually do anything. However, you can tell the difference if you print out the data set.

rr
# A tibble: 106,020 × 54
   state   age   sex ethnic under18 under5 ageyngst student
   <int> <int> <int>  <int>   <int>  <int>    <int>   <int>
 1    23    26     2     -9       4      2       NA       0
 2    23    53     2     -9       1      0       NA       0
 3    23    21     2     -9       2      2       NA       0
 4    23    24     2     -9       2      2       NA       0
 5    23    25     2     -9       3      1       NA       0
 6    23    33     2     -9       4      2       NA       0
 7    23    26     2     -9       3      2       NA       0
 8    23    61     1     -9       0      0       NA       0
 9    23    57     1     -9       0      0       NA       0
10    23    43     2     -9       2      1       NA       0
# ℹ 106,010 more rows
# ℹ 46 more variables: act20 <int>, act21 <int>,
#   act26 <int>, act24 <int>, act22 <int>, act23 <int>,
#   act27 <int>, act67 <int>, act25 <int>, act29 <int>,
#   recwght <dbl>, dataset <int>, fips <int>,
#   married <int>, working <int>, fulltime <int>,
#   parttime <int>, mother2 <int>, father2 <int>, …
…
So now let’s discuss some functions that come with tidyverse. The first functions we will introduce are filter, select, and arrange.

The filter() function retrieves observations (rows) in the data that meet a certain condition. For example, maybe you want to restrict the analysis to a certain demographic. You can use the filter() function to do this. In our example, we want to restrict to mothers between ages 25 and 34. We can use filter() to accomplish this. The general syntax for filter() is:

filter(dataframe, some logical statement)

In our example, we can create the subset of the dataset we want by typing:

mothers2534 <- filter(rr, age<=34 & age>=25 & mother2==1)

You can use other logical operators in combination with filter as well. For example, imagine for a subset of our analysis we only want years between 2003 and 2008. We can use the operator %in% to accomplish this.

filter(mothers2534, dataset%in%2003:2008)
# A tibble: 6,416 × 54
   state   age   sex ethnic under18 under5 ageyngst student
   <int> <int> <int>  <int>   <int>  <int>    <int>   <int>
 1    NA    32     2     NA       1     NA        2       1
 2    NA    33     2     NA       3     NA        3       0
 3    NA    33     2     NA       1     NA        7       0
 4    NA    32     2     NA       1     NA        2       0
 5    NA    25     2     NA       1     NA        6       0
 6    NA    34     2     NA       2     NA        2       0
 7    NA    31     2     NA       1     NA        2       0
 8    NA    32     2     NA       2     NA        6       0
 9    NA    32     2     NA       2     NA       12       0
10    NA    32     2     NA       2     NA        3       0
# ℹ 6,406 more rows
# ℹ 46 more variables: act20 <int>, act21 <int>,
#   act26 <int>, act24 <int>, act22 <int>, act23 <int>,
#   act27 <int>, act67 <int>, act25 <int>, act29 <int>,
#   recwght <dbl>, dataset <int>, fips <int>,
#   married <int>, working <int>, fulltime <int>,
#   parttime <int>, mother2 <int>, father2 <int>, …

This code is saying restrict to mothers2534 only for observations such that dataset is in the range of 2003 through 2008. One important note here is that in the code above we did not overwrite mothers2534. That is why we can see the tibble being printed out. If you want to save the result of the filter() you need to assign the resulting tibble a name. Otherwise it will simply be printed to the console but not actually saved.

Next, let’s discuss select(). This function chooses which variables you want to remain in your tibble. For example, in our current tibble we have many variables, but we really only need a subset of them for our analysis. So we can select the variables we really need:

mothers2534 <- select(mothers2534, dataset, mother2, age, childtot)

Now if we print out mothers2534, it has only four variables now.

mothers2534
# A tibble: 8,115 × 4
   dataset mother2   age childtot
     <int>   <int> <int>    <dbl>
 1    1965       1    26     7   
 2    1965       1    25     7.58
 3    1965       1    33    27.2 
 4    1965       1    26     4.20
 5    1965       1    25     6.42
 6    1965       1    26    14.8 
 7    1965       1    30    19.2 
 8    1965       1    33     8.75
 9    1965       1    30    16.3 
10    1965       1    29    29.8 
# ℹ 8,105 more rows
…
A nice thing about mutate() relative to base R is that you can generate a number of variables within the same mutate() command. For example, imagine we also want to create a variable that captures childcare time not spent on college prep. In other words, we want to add the variable childnotcollegeprep = childtot - childcollegeprep to the tibble. We can do this using the following:

rr <- mutate(rr, childcollegeprep=childtravel+childeduc,
             childnotcollegeprep=childtot-childcollegeprep)

If you have more variables to add or change, you can simply add a comma to the end of the last line, and add the new variable below. Note, we can even call variables that are created earlier in the function (i.e. childnotcollegeprep can only be created if childcollegeprep is created first).

Lastly, let’s talk about the transmute() function. This function also generates new variables, but at the same time, it drops all pre-existing variables. For example, if you wanted to create a tibble that only contains childcollegeprep and childnotcollegeprep, you could use the transmute() function:

collegeprepdat <- transmute(rr,
                            childcollegeprep = childeduc + childtravel,
                            childnotcollegeprep = childtot - childcollegeprep)

collegeprepdat
# A tibble: 106,020 × 2
   childcollegeprep childnotcollegeprep
              <dbl>               <dbl>
 1            0                    7   
 2            3.5                  1.17
 3            0.583                2.33
 4            0                   42.6 
 5            0                    7.58
 6            0                   27.2 
 7            1.17                 3.03
 8            0                    0   
 9            0                    0   
10            0                    7   
# ℹ 106,010 more rows
…
Now, let’s return to the rr tibble. In Ramey and Ramey (2010), the authors compared time spent on childcare over time separately for college-educated and less-than-college educated individuals. We can achieve a similar analysis by grouping over dataset and college. The variable college is a variable that takes on a value of 1 if the individual graduated from college, and zero otherwise.

rr %>%
  group_by(dataset,college) %>%
  summarize(meanchildtot = mean(childtot, na.rm=T))
# A tibble: 27 × 3
# Groups:   dataset [14]
   dataset college meanchildtot
     <dbl>   <dbl>        <dbl>
 1    1965       0         4.35
 2    1965       1         3.66
 3    1975       0         3.33
 4    1975       1         3.51
 5    1985       0         2.89
 6    1985       1         3.13
 7    1993       0         2.25
 8    1993       1         1.74
 9    1995       0         4.39
10    1995       1         3.85
# ℹ 17 more rows
…
