Chapter 9 Voting | Econ5/Poli5D
…
So many of the information stored here we won’t use in this course. But there are two elements that will be useful for us. You can see one of the names is fitted.values and another is residual. Fitted values is another name for predicted values.

We can extract the information from lm.florida by using the dollar sign operator. For example, if we want to add a new variable to the dataset that is the fitted value for each observation, we type:

florida$predBuchanan00 <- lm.florida$fitted.values

predBuchanan00 is the name of the new variable and it is equal to the fitted values from the regression estimation. We can similarly extract the residual from our lm.florida object and add to the data frame florida.

florida$residuals <- lm.florida$residuals

Now, let’s look at the data to try and understand our process so far.

#> # A tibble: 67 × 4
#>    county    Buchanan00 predBuchanan00 residuals
#>    <chr>          <dbl>          <dbl>     <dbl>
#>  1 Alachua          263          291.     -28.3 
#>  2 Baker             73           25.3     47.7 
#>  3 Bay              248          214.      34.0 
#>  4 Bradford          65           30.8     34.2 
#>  5 Brevard          570          908.    -338.  
#>  6 Broward          788         1401.    -613.  
#>  7 Calhoun           90           24.0     66.0 
#>  8 Charlotte        182          281.     -98.9 
#>  9 Citrus           270          262.       8.49
#> 10 Clay             186          119.      66.8 
#> # ℹ 57 more rows

So for Alachua county the number of Buchanan votes in 2000 was 263. The predicted Buchanan votes was 291.251 (if you view your data frame you will be able to see more decimal places). Therefore the residual is -28.3. The reason this is slightly different than what we had above is because when we formed this manually we rounded the coefficients in the regression. When R does the computation, it is much more precise than we were, which explains why predicted values and residuals are slightly different than the manual computation.

Now let’s order the dataset by the magnitude of the residual. Observations with large residuals will be those in which our predictions are very different than our predicted value. To sort data based on the value of a variable, we can use the arrange() function.

For our purposes we want to sort based on the absolute value of the residual. Therefore, we will specify arrange(abs(residuals)). The abs() function takes the absolute value of a number. However, in addition, we want the largest residuals to be at the top. By default, arrange sorts the data from lowest to highest. To change this, we can ask for the data to be presented in descending order, by specifying arrange(desc(abs(residuals))). The desc() function specifies to order the data in descending order (from largest to smallest).

Additionally, we can combine arrange with other functions using the pipe operator. In this example, we are really only interested in a few variables at the moment. So let’s first select those variables, and then display the data from largest residual (in absolute value) to lowest residual.

florida %>% 
  select(county,Buchanan00,predBuchanan00,residuals) %>%
  arrange(desc(abs(residuals)))

#> # A tibble: 67 × 4
#>    county     Buchanan00 predBuchanan00 residuals
#>    <chr>           <dbl>          <dbl>     <dbl>
#>  1 PalmBeach        3407          1105.     2302.
#>  2 Broward           788          1401.     -613.
#>  3 Lee               305           662.     -357.
#>  4 Brevard           570           908.     -338.
#>  5 Miami-Dade        560           889.     -329.
#>  6 Pinellas         1013          1330.     -317.
#>  7 Sarasota          305           538.     -233.
#>  8 Orange            446           655.     -209.
#>  9 Escambia          502           310.      192.
#> 10 St.Lucie          124           306.     -182.
#> # ℹ 57 more rows
…
The data for this application comes from a csv file named turnout.csv. Let’s load this into R as a tibble.

turnout <- read_csv("turnout.csv")
#> Rows: 3872268 Columns: 5
#> ── Column specification ────────────────────────────────────
#> Delimiter: ","
#> chr (2): Party, treatment.assign
#> dbl (3): LocalityCode, yvar, mailer
#> 
#> ℹ Use `spec()` to retrieve the full column specification for this data.
#> ℹ Specify the column types or set `show_col_types = FALSE` to quiet this message.

This is a very large dataset. The data includes information on over 3.8 million individuals in California. Let’s take a look at a small slice of the data:

#> # A tibble: 3,872,268 × 5
#>    LocalityCode Party  yvar treatment.assign mailer
#>           <dbl> <chr> <dbl> <chr>             <dbl>
#>  1            1 REP       0 Control               0
#>  2            1 NPP       0 Control               0
#>  3            1 DEM       1 Control               0
#>  4            1 REP       0 Control               0
#>  5            1 DEM       0 Control               0
#>  6            1 NPP       0 Control               0
#>  7            1 DEM       0 Control               0
#>  8            1 DEM       0 Control               0
#>  9            1 REP       0 Control               0
#> 10            1 NPP       0 Control               0
#> # ℹ 3,872,258 more rows
…
